[gd_resource type="StyleBoxTexture" load_steps=2 format=2]

[ext_resource path="res://Assets/slot.png" type="Texture" id=1]

[resource]
texture = ExtResource( 1 )
region_rect = Rect2( 0, 0, 96, 96 )
margin_left = 10.0
margin_right = 10.0
margin_top = 10.0
margin_bottom = 10.0
